{
  "href": "https://api.spotify.com/v1/users/basti_3/playlists?offset=2&limit=3",
  "items": [
    {
      "collaborative": false,
      "external_urls": {
        "spotify": "https://open.spotify.com/playlist/5rVQlDLplfQhOWk6Nf3XLG"
      },
      "href": "https://api.spotify.com/v1/playlists/5rVQlDLplfQhOWk6Nf3XLG",
      "id": "5rVQlDLplfQhOWk6Nf3XLG",
      "images": [
        {
          "height": 640,
          "url": "https://mosaic.scdn.co/640/16f5134b451303d2ca39d6757ceabe295d387b3b295e2f20d65b0845a10ca86115971fb9e705c3ccb04f24f9b2c3387070e88eb0e01f186fd660b92bc5c834b63eee4279cd475cfcc387e8275a377e20",
          "width": 640
        },
        {
          "height": 300,
          "url": "https://mosaic.scdn.co/300/16f5134b451303d2ca39d6757ceabe295d387b3b295e2f20d65b0845a10ca86115971fb9e705c3ccb04f24f9b2c3387070e88eb0e01f186fd660b92bc5c834b63eee4279cd475cfcc387e8275a377e20",
          "width": 300
        },
        {
          "height": 60,
          "url": "https://mosaic.scdn.co/60/16f5134b451303d2ca39d6757ceabe295d387b3b295e2f20d65b0845a10ca86115971fb9e705c3ccb04f24f9b2c3387070e88eb0e01f186fd660b92bc5c834b63eee4279cd475cfcc387e8275a377e20",
          "width": 60
        }
      ],
      "name": "House",
      "owner": {
        "display_name": "basti_3",
        "external_urls": {
          "spotify": "https://open.spotify.com/user/basti_3"
        },
        "href": "https://api.spotify.com/v1/users/basti_3",
        "id": "basti_3",
        "type": "user",
        "uri": "spotify:user:basti_3"
      },
      "primary_color": null,
      "public": false,
      "snapshot_id": "MjAsZGY2ZjhiYzE1YzhmYTZmNmI2YTIyMThjNGI2YzAyMWVlY2M2MGQzMw==",
      "tracks": {
        "href": "https://api.spotify.com/v1/playlists/5rVQlDLplfQhOWk6Nf3XLG/tracks",
        "total": 17
      },
      "type": "playlist",
      "uri": "spotify:user:basti_3:playlist:5rVQlDLplfQhOWk6Nf3XLG"
    },
    {
      "collaborative": false,
      "external_urls": {
        "spotify": "https://open.spotify.com/playlist/2lozBTZJKkKktIjS5KDCeB"
      },
      "href": "https://api.spotify.com/v1/playlists/2lozBTZJKkKktIjS5KDCeB",
      "id": "2lozBTZJKkKktIjS5KDCeB",
      "images": [
        {
          "height": 640,
          "url": "https://mosaic.scdn.co/640/2284832310616607535a705359a671b0ace0a0f232b4b01c754daf52a67cd86368e6e2b3d9468bca569055900d3d4a8d13dd5cf1672b0643e7d27ebca3d071853a12fad7f4114e92c404a218d90081a7",
          "width": 640
        },
        {
          "height": 300,
          "url": "https://mosaic.scdn.co/300/2284832310616607535a705359a671b0ace0a0f232b4b01c754daf52a67cd86368e6e2b3d9468bca569055900d3d4a8d13dd5cf1672b0643e7d27ebca3d071853a12fad7f4114e92c404a218d90081a7",
          "width": 300
        },
        {
          "height": 60,
          "url": "https://mosaic.scdn.co/60/2284832310616607535a705359a671b0ace0a0f232b4b01c754daf52a67cd86368e6e2b3d9468bca569055900d3d4a8d13dd5cf1672b0643e7d27ebca3d071853a12fad7f4114e92c404a218d90081a7",
          "width": 60
        }
      ],
      "name": "Acid",
      "owner": {
        "display_name": "basti_3",
        "external_urls": {
          "spotify": "https://open.spotify.com/user/basti_3"
        },
        "href": "https://api.spotify.com/v1/users/basti_3",
        "id": "basti_3",
        "type": "user",
        "uri": "spotify:user:basti_3"
      },
      "primary_color": null,
      "public": false,
      "snapshot_id": "MzIsMjI2ODQ1NzU0YTY2OTQxYjMxMzk1MDVmNDA0MmZmZDU1YTEzYTJlZQ==",
      "tracks": {
        "href": "https://api.spotify.com/v1/playlists/2lozBTZJKkKktIjS5KDCeB/tracks",
        "total": 29
      },
      "type": "playlist",
      "uri": "spotify:user:basti_3:playlist:2lozBTZJKkKktIjS5KDCeB"
    },
    {
      "collaborative": false,
      "external_urls": {
        "spotify": "https://open.spotify.com/playlist/7l52EF3Z1tqinWOTYGAGKl"
      },
      "href": "https://api.spotify.com/v1/playlists/7l52EF3Z1tqinWOTYGAGKl",
      "id": "7l52EF3Z1tqinWOTYGAGKl",
      "images": [
        {
          "height": 640,
          "url": "https://mosaic.scdn.co/640/33211118630c57bd25cda8ee121047bed91d68be3530892482b7436fd3f84338e5ec1c40915346feaeab90a33983c7c0e76b9572d009cb6c4e9c8199f2d8d245b0614b503ad24c812639895c4f0308b8",
          "width": 640
        },
        {
          "height": 300,
          "url": "https://mosaic.scdn.co/300/33211118630c57bd25cda8ee121047bed91d68be3530892482b7436fd3f84338e5ec1c40915346feaeab90a33983c7c0e76b9572d009cb6c4e9c8199f2d8d245b0614b503ad24c812639895c4f0308b8",
          "width": 300
        },
        {
          "height": 60,
          "url": "https://mosaic.scdn.co/60/33211118630c57bd25cda8ee121047bed91d68be3530892482b7436fd3f84338e5ec1c40915346feaeab90a33983c7c0e76b9572d009cb6c4e9c8199f2d8d245b0614b503ad24c812639895c4f0308b8",
          "width": 60
        }
      ],
      "name": "Cool",
      "owner": {
        "display_name": "basti_3",
        "external_urls": {
          "spotify": "https://open.spotify.com/user/basti_3"
        },
        "href": "https://api.spotify.com/v1/users/basti_3",
        "id": "basti_3",
        "type": "user",
        "uri": "spotify:user:basti_3"
      },
      "primary_color": null,
      "public": false,
      "snapshot_id": "NDksODk4MTE4MDE3MGEwM2MwMGVmZjA4NGM1NTI0YWFhYThhNjA5NjYwYQ==",
      "tracks": {
        "href": "https://api.spotify.com/v1/playlists/7l52EF3Z1tqinWOTYGAGKl/tracks",
        "total": 47
      },
      "type": "playlist",
      "uri": "spotify:user:basti_3:playlist:7l52EF3Z1tqinWOTYGAGKl"
    }
  ],
  "limit": 3,
  "next": "https://api.spotify.com/v1/users/basti_3/playlists?offset=5&limit=3",
  "offset": 2,
  "previous": "https://api.spotify.com/v1/users/basti_3/playlists?offset=0&limit=3",
  "total": 75
}