{
  "href": "https://api.spotify.com/v1/playlists/4NPzziSpoSEA4dPNnSAsl9/tracks?offset=3&limit=2",
  "items": [
    {
      "added_at": "2018-06-10T10:26:19Z",
      "added_by": {
        "external_urls": {
          "spotify": "https://open.spotify.com/user/basti_3"
        },
        "href": "https://api.spotify.com/v1/users/basti_3",
        "id": "basti_3",
        "type": "user",
        "uri": "spotify:user:basti_3"
      },
      "is_local": false,
      "primary_color": null,
      "track": {
        "album": {
          "album_type": "compilation",
          "artists": [
            {
              "external_urls": {
                "spotify": "https://open.spotify.com/artist/0LyfQWJT6nXafLPZqxe9Of"
              },
              "href": "https://api.spotify.com/v1/artists/0LyfQWJT6nXafLPZqxe9Of",
              "id": "0LyfQWJT6nXafLPZqxe9Of",
              "name": "Various Artists",
              "type": "artist",
              "uri": "spotify:artist:0LyfQWJT6nXafLPZqxe9Of"
            }
          ],
          "available_markets": [],
          "external_urls": {
            "spotify": "https://open.spotify.com/album/4CiCpqzAwNdRCJceEDUq39"
          },
          "href": "https://api.spotify.com/v1/albums/4CiCpqzAwNdRCJceEDUq39",
          "id": "4CiCpqzAwNdRCJceEDUq39",
          "images": [
            {
              "height": 640,
              "url": "https://i.scdn.co/image/9040e4c7572ed037e3d044d7f35d41260c81c205",
              "width": 640
            },
            {
              "height": 300,
              "url": "https://i.scdn.co/image/e28f43f3e2bcc38bef447d772d2ae6787716bf07",
              "width": 300
            },
            {
              "height": 64,
              "url": "https://i.scdn.co/image/0f636c7e4762e6fa4be7d3fab8f30d060bda001d",
              "width": 64
            }
          ],
          "name": "Gouldian Finch #02",
          "release_date": "2017-10-05",
          "release_date_precision": "day",
          "total_tracks": 22,
          "type": "album",
          "uri": "spotify:album:4CiCpqzAwNdRCJceEDUq39"
        },
        "artists": [
          {
            "external_urls": {
              "spotify": "https://open.spotify.com/artist/1kwGj7uDO5WXVXtQLvGJr0"
            },
            "href": "https://api.spotify.com/v1/artists/1kwGj7uDO5WXVXtQLvGJr0",
            "id": "1kwGj7uDO5WXVXtQLvGJr0",
            "name": "Just A Gent",
            "type": "artist",
            "uri": "spotify:artist:1kwGj7uDO5WXVXtQLvGJr0"
          }
        ],
        "available_markets": [],
        "disc_number": 1,
        "duration_ms": 228942,
        "episode": false,
        "explicit": false,
        "external_ids": {
          "isrc": "NLRD51632076"
        },
        "external_urls": {
          "spotify": "https://open.spotify.com/track/1Dk4DyvkcOaAzsY7kBIrMi"
        },
        "href": "https://api.spotify.com/v1/tracks/1Dk4DyvkcOaAzsY7kBIrMi",
        "id": "1Dk4DyvkcOaAzsY7kBIrMi",
        "is_local": false,
        "name": "Future Bass Is Dead",
        "popularity": 3,
        "preview_url": null,
        "track": true,
        "track_number": 11,
        "type": "track",
        "uri": "spotify:track:1Dk4DyvkcOaAzsY7kBIrMi"
      },
      "video_thumbnail": {
        "url": null
      }
    },
    {
      "added_at": "2018-06-10T12:12:20Z",
      "added_by": {
        "external_urls": {
          "spotify": "https://open.spotify.com/user/basti_3"
        },
        "href": "https://api.spotify.com/v1/users/basti_3",
        "id": "basti_3",
        "type": "user",
        "uri": "spotify:user:basti_3"
      },
      "is_local": false,
      "primary_color": null,
      "track": {
        "album": {
          "album_type": "album",
          "artists": [
            {
              "external_urls": {
                "spotify": "https://open.spotify.com/artist/1xU878Z1QtBldR7ru9owdU"
              },
              "href": "https://api.spotify.com/v1/artists/1xU878Z1QtBldR7ru9owdU",
              "id": "1xU878Z1QtBldR7ru9owdU",
              "name": "Phoenix",
              "type": "artist",
              "uri": "spotify:artist:1xU878Z1QtBldR7ru9owdU"
            }
          ],
          "available_markets": [
            "AD",
            "AE",
            "AR",
            "AT",
            "AU",
            "BE",
            "BG",
            "BH",
            "BO",
            "BR",
            "CA",
            "CH",
            "CL",
            "CO",
            "CR",
            "CY",
            "CZ",
            "DE",
            "DK",
            "DO",
            "DZ",
            "EC",
            "EE",
            "EG",
            "ES",
            "FI",
            "FR",
            "GB",
            "GR",
            "GT",
            "HK",
            "HN",
            "HU",
            "ID",
            "IE",
            "IL",
            "IS",
            "IT",
            "JO",
            "JP",
            "KW",
            "LB",
            "LI",
            "LT",
            "LU",
            "LV",
            "MA",
            "MC",
            "MT",
            "MX",
            "MY",
            "NI",
            "NL",
            "NO",
            "NZ",
            "OM",
            "PA",
            "PE",
            "PH",
            "PL",
            "PS",
            "PT",
            "PY",
            "QA",
            "RO",
            "SA",
            "SE",
            "SG",
            "SK",
            "SV",
            "TH",
            "TN",
            "TR",
            "TW",
            "US",
            "UY",
            "VN",
            "ZA"
          ],
          "external_urls": {
            "spotify": "https://open.spotify.com/album/5MBUL8d9FAYCCMrogOFX68"
          },
          "href": "https://api.spotify.com/v1/albums/5MBUL8d9FAYCCMrogOFX68",
          "id": "5MBUL8d9FAYCCMrogOFX68",
          "images": [
            {
              "height": 640,
              "url": "https://i.scdn.co/image/b8b96e31074847815dd61a772864c9e0978d90cc",
              "width": 640
            },
            {
              "height": 300,
              "url": "https://i.scdn.co/image/a424cb5cdd3b135f5689b19bde861c06342ef604",
              "width": 300
            },
            {
              "height": 64,
              "url": "https://i.scdn.co/image/611075a194bd41992f62f41b9bb4d1fb956e1235",
              "width": 64
            }
          ],
          "name": "United",
          "release_date": "2000-03-06",
          "release_date_precision": "day",
          "total_tracks": 10,
          "type": "album",
          "uri": "spotify:album:5MBUL8d9FAYCCMrogOFX68"
        },
        "artists": [
          {
            "external_urls": {
              "spotify": "https://open.spotify.com/artist/1xU878Z1QtBldR7ru9owdU"
            },
            "href": "https://api.spotify.com/v1/artists/1xU878Z1QtBldR7ru9owdU",
            "id": "1xU878Z1QtBldR7ru9owdU",
            "name": "Phoenix",
            "type": "artist",
            "uri": "spotify:artist:1xU878Z1QtBldR7ru9owdU"
          }
        ],
        "available_markets": [
          "AD",
          "AE",
          "AR",
          "AT",
          "AU",
          "BE",
          "BG",
          "BH",
          "BO",
          "BR",
          "CA",
          "CH",
          "CL",
          "CO",
          "CR",
          "CY",
          "CZ",
          "DE",
          "DK",
          "DO",
          "DZ",
          "EC",
          "EE",
          "EG",
          "ES",
          "FI",
          "FR",
          "GB",
          "GR",
          "GT",
          "HK",
          "HN",
          "HU",
          "ID",
          "IE",
          "IL",
          "IS",
          "IT",
          "JO",
          "JP",
          "KW",
          "LB",
          "LI",
          "LT",
          "LU",
          "LV",
          "MA",
          "MC",
          "MT",
          "MX",
          "MY",
          "NI",
          "NL",
          "NO",
          "NZ",
          "OM",
          "PA",
          "PE",
          "PH",
          "PL",
          "PS",
          "PT",
          "PY",
          "QA",
          "RO",
          "SA",
          "SE",
          "SG",
          "SK",
          "SV",
          "TH",
          "TN",
          "TR",
          "TW",
          "US",
          "UY",
          "VN",
          "ZA"
        ],
        "disc_number": 1,
        "duration_ms": 266600,
        "episode": false,
        "explicit": false,
        "external_ids": {
          "isrc": "FRS639900098"
        },
        "external_urls": {
          "spotify": "https://open.spotify.com/track/3AA8xNhDC0MpqwkGX3EP5V"
        },
        "href": "https://api.spotify.com/v1/tracks/3AA8xNhDC0MpqwkGX3EP5V",
        "id": "3AA8xNhDC0MpqwkGX3EP5V",
        "is_local": false,
        "name": "If I ever feel better",
        "popularity": 65,
        "preview_url": "https://p.scdn.co/mp3-preview/1a42fab99c251f09cc72a7c9a37f37f57383eb2a?cid=774b29d4f13844c495f206cafdad9c86",
        "track": true,
        "track_number": 4,
        "type": "track",
        "uri": "spotify:track:3AA8xNhDC0MpqwkGX3EP5V"
      },
      "video_thumbnail": {
        "url": null
      }
    }
  ],
  "limit": 2,
  "next": "https://api.spotify.com/v1/playlists/4NPzziSpoSEA4dPNnSAsl9/tracks?offset=5&limit=2",
  "offset": 2,
  "previous": "https://api.spotify.com/v1/playlists/4NPzziSpoSEA4dPNnSAsl9/tracks?offset=1&limit=2",
  "total": 176
}