{
  "href": "https://api.spotify.com/v1/users/basti_3/playlists?offset=2&limit=2",
  "items": [
    {
      "collaborative": false,
      "external_urls": {
        "spotify": "https://open.spotify.com/playlist/4NPzziSpoSEA4dPNnSAsl9"
      },
      "href": "https://api.spotify.com/v1/playlists/4NPzziSpoSEA4dPNnSAsl9",
      "id": "4NPzziSpoSEA4dPNnSAsl9",
      "images": [
        {
          "height": 640,
          "url": "https://mosaic.scdn.co/640/0e81b5ec81e1d81fcac3feca1d3b533129f9600f7565c10bd67f7f7fcf9ec4f42db9704eab85eacab8b96e31074847815dd61a772864c9e0978d90ccd6b6261317750bfa507824fec9c7681b8f40879b",
          "width": 640
        },
        {
          "height": 300,
          "url": "https://mosaic.scdn.co/300/0e81b5ec81e1d81fcac3feca1d3b533129f9600f7565c10bd67f7f7fcf9ec4f42db9704eab85eacab8b96e31074847815dd61a772864c9e0978d90ccd6b6261317750bfa507824fec9c7681b8f40879b",
          "width": 300
        },
        {
          "height": 60,
          "url": "https://mosaic.scdn.co/60/0e81b5ec81e1d81fcac3feca1d3b533129f9600f7565c10bd67f7f7fcf9ec4f42db9704eab85eacab8b96e31074847815dd61a772864c9e0978d90ccd6b6261317750bfa507824fec9c7681b8f40879b",
          "width": 60
        }
      ],
      "name": "new stuff",
      "owner": {
        "display_name": "basti_3",
        "external_urls": {
          "spotify": "https://open.spotify.com/user/basti_3"
        },
        "href": "https://api.spotify.com/v1/users/basti_3",
        "id": "basti_3",
        "type": "user",
        "uri": "spotify:user:basti_3"
      },
      "primary_color": null,
      "public": false,
      "snapshot_id": "NTY0LDcyYTI5OGMxMjEwZmQ2ZTgxYmU1ZjRhMmQ3MTliNGRmZDg1ZDY5ZTk=",
      "tracks": {
        "href": "https://api.spotify.com/v1/playlists/4NPzziSpoSEA4dPNnSAsl9/tracks",
        "total": 186
      },
      "type": "playlist",
      "uri": "spotify:user:basti_3:playlist:4NPzziSpoSEA4dPNnSAsl9"
    },
    {
      "collaborative": false,
      "external_urls": {
        "spotify": "https://open.spotify.com/playlist/48NIAlNtylJumKg5iPPQ4d"
      },
      "href": "https://api.spotify.com/v1/playlists/48NIAlNtylJumKg5iPPQ4d",
      "id": "48NIAlNtylJumKg5iPPQ4d",
      "images": [
        {
          "height": 640,
          "url": "https://mosaic.scdn.co/640/06fc3ffde31bb75e7e9abcbb82e8071a84c40ae617d7d648425259666e7b62a3597bdb3303e2f7018d20df0fbec1cd84eaa3de542167a50fd6140a7ed69a5ba9ae21b201605b9a328981b194553989a3",
          "width": 640
        },
        {
          "height": 300,
          "url": "https://mosaic.scdn.co/300/06fc3ffde31bb75e7e9abcbb82e8071a84c40ae617d7d648425259666e7b62a3597bdb3303e2f7018d20df0fbec1cd84eaa3de542167a50fd6140a7ed69a5ba9ae21b201605b9a328981b194553989a3",
          "width": 300
        },
        {
          "height": 60,
          "url": "https://mosaic.scdn.co/60/06fc3ffde31bb75e7e9abcbb82e8071a84c40ae617d7d648425259666e7b62a3597bdb3303e2f7018d20df0fbec1cd84eaa3de542167a50fd6140a7ed69a5ba9ae21b201605b9a328981b194553989a3",
          "width": 60
        }
      ],
      "name": "Acid/Funk | Jazz Fusion",
      "owner": {
        "display_name": "basti_3",
        "external_urls": {
          "spotify": "https://open.spotify.com/user/basti_3"
        },
        "href": "https://api.spotify.com/v1/users/basti_3",
        "id": "basti_3",
        "type": "user",
        "uri": "spotify:user:basti_3"
      },
      "primary_color": null,
      "public": false,
      "snapshot_id": "OSw4NjQ1YzQxMjBkN2RlOTVjZTJlZGZkNzZiMDgyNGFiNzc5NGZmYThl",
      "tracks": {
        "href": "https://api.spotify.com/v1/playlists/48NIAlNtylJumKg5iPPQ4d/tracks",
        "total": 7
      },
      "type": "playlist",
      "uri": "spotify:user:basti_3:playlist:48NIAlNtylJumKg5iPPQ4d"
    },
    {
      "collaborative": false,
      "external_urls": {
        "spotify": "https://open.spotify.com/playlist/5rVQlDLplfQhOWk6Nf3XLG"
      },
      "href": "https://api.spotify.com/v1/playlists/5rVQlDLplfQhOWk6Nf3XLG",
      "id": "5rVQlDLplfQhOWk6Nf3XLG",
      "images": [
        {
          "height": 640,
          "url": "https://mosaic.scdn.co/640/16f5134b451303d2ca39d6757ceabe295d387b3b295e2f20d65b0845a10ca86115971fb9e705c3cc4cbf82c2ceb43ecea29fc039cbf6efefe3ccc0ffb863cf3ffd817f34744c2473570ce1a2fe8098c9",
          "width": 640
        },
        {
          "height": 300,
          "url": "https://mosaic.scdn.co/300/16f5134b451303d2ca39d6757ceabe295d387b3b295e2f20d65b0845a10ca86115971fb9e705c3cc4cbf82c2ceb43ecea29fc039cbf6efefe3ccc0ffb863cf3ffd817f34744c2473570ce1a2fe8098c9",
          "width": 300
        },
        {
          "height": 60,
          "url": "https://mosaic.scdn.co/60/16f5134b451303d2ca39d6757ceabe295d387b3b295e2f20d65b0845a10ca86115971fb9e705c3cc4cbf82c2ceb43ecea29fc039cbf6efefe3ccc0ffb863cf3ffd817f34744c2473570ce1a2fe8098c9",
          "width": 60
        }
      ],
      "name": "House",
      "owner": {
        "display_name": "basti_3",
        "external_urls": {
          "spotify": "https://open.spotify.com/user/basti_3"
        },
        "href": "https://api.spotify.com/v1/users/basti_3",
        "id": "basti_3",
        "type": "user",
        "uri": "spotify:user:basti_3"
      },
      "primary_color": null,
      "public": false,
      "snapshot_id": "MjAsZGY2ZjhiYzE1YzhmYTZmNmI2YTIyMThjNGI2YzAyMWVlY2M2MGQzMw==",
      "tracks": {
        "href": "https://api.spotify.com/v1/playlists/5rVQlDLplfQhOWk6Nf3XLG/tracks",
        "total": 17
      },
      "type": "playlist",
      "uri": "spotify:user:basti_3:playlist:5rVQlDLplfQhOWk6Nf3XLG"
    },
    {
      "collaborative": false,
      "external_urls": {
        "spotify": "https://open.spotify.com/playlist/2lozBTZJKkKktIjS5KDCeB"
      },
      "href": "https://api.spotify.com/v1/playlists/2lozBTZJKkKktIjS5KDCeB",
      "id": "2lozBTZJKkKktIjS5KDCeB",
      "images": [
        {
          "height": 640,
          "url": "https://mosaic.scdn.co/640/2284832310616607535a705359a671b0ace0a0f232b4b01c754daf52a67cd86368e6e2b3d9468bca569055900d3d4a8d13dd5cf1672b0643e7d27ebca3d071853a12fad7f4114e92c404a218d90081a7",
          "width": 640
        },
        {
          "height": 300,
          "url": "https://mosaic.scdn.co/300/2284832310616607535a705359a671b0ace0a0f232b4b01c754daf52a67cd86368e6e2b3d9468bca569055900d3d4a8d13dd5cf1672b0643e7d27ebca3d071853a12fad7f4114e92c404a218d90081a7",
          "width": 300
        },
        {
          "height": 60,
          "url": "https://mosaic.scdn.co/60/2284832310616607535a705359a671b0ace0a0f232b4b01c754daf52a67cd86368e6e2b3d9468bca569055900d3d4a8d13dd5cf1672b0643e7d27ebca3d071853a12fad7f4114e92c404a218d90081a7",
          "width": 60
        }
      ],
      "name": "Acid",
      "owner": {
        "display_name": "basti_3",
        "external_urls": {
          "spotify": "https://open.spotify.com/user/basti_3"
        },
        "href": "https://api.spotify.com/v1/users/basti_3",
        "id": "basti_3",
        "type": "user",
        "uri": "spotify:user:basti_3"
      },
      "primary_color": null,
      "public": false,
      "snapshot_id": "MzgsMTc0NjM3ZGY5MjM1MmQ0NzMzYmI3YmI3OGYxNTNkMDhjYzhiMTA1Nw==",
      "tracks": {
        "href": "https://api.spotify.com/v1/playlists/2lozBTZJKkKktIjS5KDCeB/tracks",
        "total": 35
      },
      "type": "playlist",
      "uri": "spotify:user:basti_3:playlist:2lozBTZJKkKktIjS5KDCeB"
    }
  ],
  "limit": 2,
  "next": "https://api.spotify.com/v1/users/basti_3/playlists?offset=4&limit=2",
  "offset": 2,
  "previous": "https://api.spotify.com/v1/users/basti_3/playlists?offset=0&limit=2",
  "total": 4
}